<svg width="1378" height="80" viewBox="0 0 1378 80" fill="none" xmlns="http://www.w3.org/2000/svg">
<g filter="url(#filter0_d_18344_7833)">
<rect x="8" width="1370" height="70" fill="white"/>
</g>
<defs>
<filter id="filter0_d_18344_7833" x="0" y="-6" width="1386" height="86" filterUnits="userSpaceOnUse" color-interpolation-filters="sRGB">
<feFlood flood-opacity="0" result="BackgroundImageFix"/>
<feColorMatrix in="SourceAlpha" type="matrix" values="0 0 0 0 0 0 0 0 0 0 0 0 0 0 0 0 0 0 127 0" result="hardAlpha"/>
<feOffset dy="2"/>
<feGaussianBlur stdDeviation="4"/>
<feComposite in2="hardAlpha" operator="out"/>
<feColorMatrix type="matrix" values="0 0 0 0 0 0 0 0 0 0 0 0 0 0 0 0 0 0 0.05 0"/>
<feBlend mode="normal" in2="BackgroundImageFix" result="effect1_dropShadow_18344_7833"/>
<feBlend mode="normal" in="SourceGraphic" in2="effect1_dropShadow_18344_7833" result="shape"/>
</filter>
</defs>
</svg>
